EESchema Schematic File Version 4
EELAYER 30 0
EELAYER END
$Descr A4 11693 8268
encoding utf-8
Sheet 1 1
Title ""
Date ""
Rev ""
Comp ""
Comment1 ""
Comment2 ""
Comment3 ""
Comment4 ""
$EndDescr
$Comp
L ssd1351:ssd1351 U7
U 1 1 5E8C922F
P 5275 5225
F 0 "U7" H 5250 5650 50  0000 C CNN
F 1 "ssd1351" H 5250 5559 50  0000 C CNN
F 2 "" H 5225 5575 50  0001 C CNN
F 3 "" H 5225 5575 50  0001 C CNN
	1    5275 5225
	-1   0    0    1   
$EndComp
$Comp
L sim800l:SIM800L U6
U 1 1 5E8CA28B
P 5075 4075
F 0 "U6" H 5075 4550 50  0000 C CNN
F 1 "SIM800L" H 5075 4459 50  0000 C CNN
F 2 "" H 5075 4575 50  0001 C CNN
F 3 "" H 5075 4575 50  0001 C CNN
	1    5075 4075
	-1   0    0    1   
$EndComp
$Comp
L button_4pin:button_4pin U5
U 1 1 5E8CB277
P 4925 3200
F 0 "U5" H 4925 3475 50  0000 C CNN
F 1 "button_4pin" H 4925 3384 50  0000 C CNN
F 2 "" H 4925 3300 50  0001 C CNN
F 3 "" H 4925 3300 50  0001 C CNN
	1    4925 3200
	1    0    0    -1  
$EndComp
$Comp
L button_4pin:button_4pin U3
U 1 1 5E8CBE3E
P 4925 2225
F 0 "U3" H 4925 2500 50  0000 C CNN
F 1 "button_4pin" H 4925 2409 50  0000 C CNN
F 2 "" H 4925 2325 50  0001 C CNN
F 3 "" H 4925 2325 50  0001 C CNN
	1    4925 2225
	1    0    0    -1  
$EndComp
$Comp
L button_4pin:button_4pin U2
U 1 1 5E8CD176
P 4925 1725
F 0 "U2" H 4925 2000 50  0000 C CNN
F 1 "button_4pin" H 4925 1909 50  0000 C CNN
F 2 "" H 4925 1825 50  0001 C CNN
F 3 "" H 4925 1825 50  0001 C CNN
	1    4925 1725
	1    0    0    -1  
$EndComp
$Comp
L button_4pin:button_4pin U4
U 1 1 5E8CD5C8
P 4925 2700
F 0 "U4" H 4925 2975 50  0000 C CNN
F 1 "button_4pin" H 4925 2884 50  0000 C CNN
F 2 "" H 4925 2800 50  0001 C CNN
F 3 "" H 4925 2800 50  0001 C CNN
	1    4925 2700
	1    0    0    -1  
$EndComp
$Comp
L potentiometer:potentiometer U9
U 1 1 5E8CE6A8
P 7825 2525
F 0 "U9" V 7779 2653 50  0000 L CNN
F 1 "22K Pot" V 7870 2653 50  0000 L CNN
F 2 "" H 7825 2825 50  0001 C CNN
F 3 "" H 7825 2825 50  0001 C CNN
	1    7825 2525
	0    1    1    0   
$EndComp
Wire Wire Line
	4525 3425 5425 3425
Wire Wire Line
	5425 3425 5425 3575
Wire Wire Line
	6325 2225 5575 2225
Wire Wire Line
	5575 2425 6325 2425
Wire Wire Line
	5125 2650 5575 2650
Wire Wire Line
	5575 2425 5575 2650
Wire Wire Line
	5125 3150 5625 3150
Wire Wire Line
	5625 2525 6325 2525
Wire Wire Line
	5425 3725 5725 3725
Wire Wire Line
	4525 5425 4925 5425
Connection ~ 4525 3425
$Comp
L teensy4:teensy4 U8
U 1 1 5E9053D0
P 6725 2675
F 0 "U8" H 6725 3550 50  0000 C CNN
F 1 "teensy4" H 6725 3459 50  0000 C CNN
F 2 "" H 6725 3575 50  0001 C CNN
F 3 "" H 6725 3575 50  0001 C CNN
	1    6725 2675
	1    0    0    -1  
$EndComp
Wire Wire Line
	5725 2725 6325 2725
Wire Wire Line
	5725 2725 5725 3725
Wire Wire Line
	5775 3875 5775 2825
Wire Wire Line
	5775 2825 6325 2825
Wire Wire Line
	5825 3075 6325 3075
Wire Wire Line
	6325 3175 5925 3175
Wire Wire Line
	5925 3175 5925 5225
Wire Wire Line
	5925 5225 5675 5225
Wire Wire Line
	5675 5025 7125 5025
Wire Wire Line
	7125 5025 7125 3175
Wire Wire Line
	7225 4825 7225 3075
Wire Wire Line
	7225 3075 7125 3075
Wire Wire Line
	5275 4825 7225 4825
Wire Wire Line
	7125 2975 7325 2975
Wire Wire Line
	7325 2975 7325 5675
Wire Wire Line
	7325 5675 4675 5675
Wire Wire Line
	4675 5675 4675 5225
Wire Wire Line
	4675 5225 4925 5225
Wire Wire Line
	7425 2525 7125 2525
Wire Wire Line
	7825 2125 7825 2175
Wire Wire Line
	7125 2025 7275 2025
$Comp
L lipo_library:LiPo U1
U 1 1 5E92C3C8
P 3875 4275
F 0 "U1" V 3934 4048 50  0000 R CNN
F 1 "3.7V LiPo" V 3843 4048 50  0000 R CNN
F 2 "" H 3877 4611 50  0001 C CNN
F 3 "" H 3877 4611 50  0001 C CNN
	1    3875 4275
	0    -1   -1   0   
$EndComp
Wire Wire Line
	4525 3425 4525 3950
Wire Wire Line
	3900 3950 4525 3950
Wire Wire Line
	5425 4175 5575 4175
Connection ~ 4525 3950
Wire Wire Line
	4525 3950 4525 5425
Wire Wire Line
	3900 3950 3900 4125
Wire Wire Line
	5425 3875 5775 3875
Wire Wire Line
	5825 4750 4925 4750
Wire Wire Line
	4925 4750 4925 5025
Wire Wire Line
	5825 3075 5825 4750
Wire Wire Line
	5575 4650 3900 4650
Wire Wire Line
	5575 4175 5575 4650
Wire Wire Line
	3900 4400 3900 4650
Wire Wire Line
	5625 2525 5625 3150
Wire Wire Line
	5125 1675 5575 1675
Wire Wire Line
	5575 1675 5575 2225
Wire Wire Line
	5450 2325 6325 2325
Wire Wire Line
	5125 2175 5450 2175
Wire Wire Line
	5450 2175 5450 2325
Wire Wire Line
	4525 1350 4525 1825
Connection ~ 4525 1825
Wire Wire Line
	4525 1825 4525 2325
Wire Wire Line
	4725 2325 4525 2325
Connection ~ 4525 2325
Wire Wire Line
	4525 2325 4525 2800
Wire Wire Line
	4725 2800 4525 2800
Connection ~ 4525 2800
Wire Wire Line
	4525 2800 4525 3300
Wire Wire Line
	4725 3300 4525 3300
Connection ~ 4525 3300
Wire Wire Line
	4525 3300 4525 3425
Wire Wire Line
	4525 1825 4725 1825
Wire Wire Line
	4525 1350 7275 1350
Connection ~ 7275 1350
Wire Wire Line
	7275 1350 7275 2025
Wire Wire Line
	8300 1350 8300 2875
Wire Wire Line
	7275 1350 8300 1350
Wire Wire Line
	7825 2875 8300 2875
Wire Wire Line
	5675 5425 7425 5425
Wire Wire Line
	7125 2125 7350 2125
Wire Wire Line
	7350 2125 7350 2850
Connection ~ 7350 2125
Wire Wire Line
	7350 2125 7825 2125
Wire Wire Line
	7350 2850 7425 2850
Wire Wire Line
	7425 2850 7425 5425
$EndSCHEMATC
